%YAML 1.1
%TAG !u! tag:unity3d.com,2011:
--- !u!1 &550348798
GameObject:
  m_ObjectHideFlags: 0
  m_CorrespondingSourceObject: {fileID: 0}
  m_PrefabInstance: {fileID: 0}
  m_PrefabAsset: {fileID: 0}
  serializedVersion: 6
  m_Component:
  - component: {fileID: 550348799}
  - component: {fileID: 4051478351371664613}
  - component: {fileID: 8792034740887021773}
  m_Layer: 0
  m_Name: Extinguisher
  m_TagString: Untagged
  m_Icon: {fileID: 0}
  m_NavMeshLayer: 0
  m_StaticEditorFlags: 0
  m_IsActive: 1
--- !u!4 &550348799
Transform:
  m_ObjectHideFlags: 0
  m_CorrespondingSourceObject: {fileID: 0}
  m_PrefabInstance: {fileID: 0}
  m_PrefabAsset: {fileID: 0}
  m_GameObject: {fileID: 550348798}
  m_LocalRotation: {x: -0, y: 0.99720526, z: -0, w: 0.07471122}
  m_LocalPosition: {x: 0.8969675, y: 0.9711852, z: -1.4873927}
  m_LocalScale: {x: 27.011665, y: 27.011665, z: 27.011665}
  m_Children:
  - {fileID: 135052305}
  m_Father: {fileID: 0}
  m_RootOrder: 0
  m_LocalEulerAnglesHint: {x: 0, y: 171.43102, z: 0}
--- !u!65 &4051478351371664613
BoxCollider:
  m_ObjectHideFlags: 0
  m_CorrespondingSourceObject: {fileID: 0}
  m_PrefabInstance: {fileID: 0}
  m_PrefabAsset: {fileID: 0}
  m_GameObject: {fileID: 550348798}
  m_Material: {fileID: 0}
  m_IsTrigger: 0
  m_Enabled: 1
  serializedVersion: 2
  m_Size: {x: 0.0077250195, y: 0.0013564815, z: 0.0067892647}
  m_Center: {x: -0.000055656627, y: -0.0000670695, z: 0.00017370381}
--- !u!54 &8792034740887021773
Rigidbody:
  m_ObjectHideFlags: 0
  m_CorrespondingSourceObject: {fileID: 0}
  m_PrefabInstance: {fileID: 0}
  m_PrefabAsset: {fileID: 0}
  m_GameObject: {fileID: 550348798}
  serializedVersion: 2
  m_Mass: 1
  m_Drag: 0
  m_AngularDrag: 0.05
  m_UseGravity: 1
  m_IsKinematic: 0
  m_Interpolate: 0
  m_Constraints: 0
  m_CollisionDetection: 0
--- !u!1001 &1748700260610269620
PrefabInstance:
  m_ObjectHideFlags: 0
  serializedVersion: 2
  m_Modification:
    m_TransformParent: {fileID: 550348799}
    m_Modifications:
    - target: {fileID: 1748700260475231652, guid: c1889e665295ad44d9917c071d124a14,
        type: 3}
      propertyPath: m_Name
      value: Body
      objectReference: {fileID: 0}
    - target: {fileID: 1748700260475231653, guid: c1889e665295ad44d9917c071d124a14,
        type: 3}
      propertyPath: m_LocalPosition.x
      value: 0
      objectReference: {fileID: 0}
    - target: {fileID: 1748700260475231653, guid: c1889e665295ad44d9917c071d124a14,
        type: 3}
      propertyPath: m_LocalPosition.y
      value: 0.012680429
      objectReference: {fileID: 0}
    - target: {fileID: 1748700260475231653, guid: c1889e665295ad44d9917c071d124a14,
        type: 3}
      propertyPath: m_LocalPosition.z
      value: 0.00091208273
      objectReference: {fileID: 0}
    - target: {fileID: 1748700260475231653, guid: c1889e665295ad44d9917c071d124a14,
        type: 3}
      propertyPath: m_LocalRotation.x
      value: -0
      objectReference: {fileID: 0}
    - target: {fileID: 1748700260475231653, guid: c1889e665295ad44d9917c071d124a14,
        type: 3}
      propertyPath: m_LocalRotation.y
      value: -0
      objectReference: {fileID: 0}
    - target: {fileID: 1748700260475231653, guid: c1889e665295ad44d9917c071d124a14,
        type: 3}
      propertyPath: m_LocalRotation.z
      value: -0
      objectReference: {fileID: 0}
    - target: {fileID: 1748700260475231653, guid: c1889e665295ad44d9917c071d124a14,
        type: 3}
      propertyPath: m_LocalRotation.w
      value: 1
      objectReference: {fileID: 0}
    - target: {fileID: 1748700260475231653, guid: c1889e665295ad44d9917c071d124a14,
        type: 3}
      propertyPath: m_RootOrder
      value: 0
      objectReference: {fileID: 0}
    - target: {fileID: 1748700260475231653, guid: c1889e665295ad44d9917c071d124a14,
        type: 3}
      propertyPath: m_LocalEulerAnglesHint.x
      value: 0
      objectReference: {fileID: 0}
    - target: {fileID: 1748700260475231653, guid: c1889e665295ad44d9917c071d124a14,
        type: 3}
      propertyPath: m_LocalEulerAnglesHint.y
      value: 0
      objectReference: {fileID: 0}
    - target: {fileID: 1748700260475231653, guid: c1889e665295ad44d9917c071d124a14,
        type: 3}
      propertyPath: m_LocalEulerAnglesHint.z
      value: 0
      objectReference: {fileID: 0}
    m_RemovedComponents: []
  m_SourcePrefab: {fileID: 100100000, guid: c1889e665295ad44d9917c071d124a14, type: 3}
--- !u!4 &135052305 stripped
Transform:
  m_CorrespondingSourceObject: {fileID: 1748700260475231653, guid: c1889e665295ad44d9917c071d124a14,
    type: 3}
  m_PrefabInstance: {fileID: 1748700260610269620}
  m_PrefabAsset: {fileID: 0}
